<?xml version="1.0" encoding="UTF-8" standalone="no"?>
<!-- Generator: Adobe Illustrator 19.0.0, SVG Export Plug-In . SVG Version: 6.00 Build 0)  -->

<svg
   xmlns:dc="http://purl.org/dc/elements/1.1/"
   xmlns:cc="http://creativecommons.org/ns#"
   xmlns:rdf="http://www.w3.org/1999/02/22-rdf-syntax-ns#"
   xmlns:svg="http://www.w3.org/2000/svg"
   xmlns="http://www.w3.org/2000/svg"
   xmlns:sodipodi="http://sodipodi.sourceforge.net/DTD/sodipodi-0.dtd"
   xmlns:inkscape="http://www.inkscape.org/namespaces/inkscape"
   version="1.1"
   id="Layer_1"
   x="0px"
   y="0px"
   viewBox="0 0 485 485"
   style="enable-background:new 0 0 485 485;"
   xml:space="preserve"
   sodipodi:docname="pause-svgrepo-com.svg"
   inkscape:version="0.92.4 (unknown)"><metadata
   id="metadata45"><rdf:RDF><cc:Work
       rdf:about=""><dc:format>image/svg+xml</dc:format><dc:type
         rdf:resource="http://purl.org/dc/dcmitype/StillImage" /></cc:Work></rdf:RDF></metadata><defs
   id="defs43" /><sodipodi:namedview
   pagecolor="#ffffff"
   bordercolor="#666666"
   borderopacity="1"
   objecttolerance="10"
   gridtolerance="10"
   guidetolerance="10"
   inkscape:pageopacity="0"
   inkscape:pageshadow="2"
   inkscape:window-width="1366"
   inkscape:window-height="703"
   id="namedview41"
   showgrid="false"
   inkscape:zoom="0.48659794"
   inkscape:cx="26.716102"
   inkscape:cy="242.5"
   inkscape:window-x="0"
   inkscape:window-y="0"
   inkscape:window-maximized="1"
   inkscape:current-layer="Layer_1" />
<g
   id="g8">
	<path
   d="M413.974,71.026C368.171,25.225,307.274,0,242.5,0S116.829,25.225,71.026,71.026C25.225,116.829,0,177.726,0,242.5   s25.225,125.671,71.026,171.474C116.829,459.775,177.726,485,242.5,485s125.671-25.225,171.474-71.026   C459.775,368.171,485,307.274,485,242.5S459.775,116.829,413.974,71.026z M242.5,455C125.327,455,30,359.673,30,242.5   S125.327,30,242.5,30S455,125.327,455,242.5S359.673,455,242.5,455z"
   id="path2" />
	<rect
   x="172.5"
   y="140"
   width="55"
   height="205"
   id="rect4" />
	<rect
   x="257.5"
   y="140"
   width="55"
   height="205"
   id="rect6" />
</g>
<g
   id="g10">
</g>
<g
   id="g12">
</g>
<g
   id="g14">
</g>
<g
   id="g16">
</g>
<g
   id="g18">
</g>
<g
   id="g20">
</g>
<g
   id="g22">
</g>
<g
   id="g24">
</g>
<g
   id="g26">
</g>
<g
   id="g28">
</g>
<g
   id="g30">
</g>
<g
   id="g32">
</g>
<g
   id="g34">
</g>
<g
   id="g36">
</g>
<g
   id="g38">
</g>
<path
   style="fill:#ffffff;fill-opacity:1;stroke-width:2.05508471"
   d="M 216.40042,452.35744 C 184.75666,448.63104 143.65836,432.35294 118.7839,413.69376 91.279398,393.06169 68.444544,366.09878 53.820078,336.98587 7.9744707,245.72104 33.62891,135.7117 115.06853,74.345101 186.7136,20.35892 284.54023,16.859533 357.94237,65.657185 460.7693,134.01639 484.62789,271.76192 410.64685,369.94216 365.25531,430.18129 292.00383,461.26059 216.40042,452.35744 Z M 227.70339,241.88347 V 138.10169 H 199.95975 172.2161 v 103.78178 103.78178 h 27.74365 27.74364 z m 85.8188,0.51378 -0.53278,-103.26801 -28.25742,-0.57177 -28.25741,-0.57176 v 103.83977 103.83977 h 28.79019 28.7902 z"
   id="path47"
   inkscape:connector-curvature="0" /></svg>